{
  "name": "query+links",
  "mode": "prop",
  "fieldname": "links",
  "wrap_in_vec": true,
  "fields": [
    {
      "name": "ns",
      "type_": "i32",
      "prop": "=default"
    },
    {
      "name": "title",
      "type_": "String",
      "prop": "=default"
    }
  ],
  "test_extra": {
    "assert": {
      "continue": true,
      "length": 2
    },
    "params": {
      "titles": "Albert Einstein|This article does not exist, please"
    }
  }
}
