{
  "name": "query+categories",
  "mode": "prop",
  "fieldname": "categories",
  "prop": "clprop",
  "wrap_in_vec": true,
  "fields": [
    {
      "name": "ns",
      "type_": "i32",
      "prop": "=default"
    },
    {
      "name": "title",
      "type_": "String",
      "prop": "=default"
    },
    {
      "name": "sortkey",
      "type_": "String",
      "prop": "sortkey"
    },
    {
      "name": "sortkeyprefix",
      "type_": "String",
      "prop": "sortkey"
    },
    {
      "name": "timestamp",
      "type_": "mwapi_responses::timestamp::Timestamp",
      "prop": "timestamp"
    },
    {
      "name": "hidden",
      "type_": "bool",
      "default": true,
      "prop": "hidden"
    }
  ],
  "test_extra": {
    "assert": {
      "continue": true,
      "length": 2
    },
    "params": {
      "titles": "Albert Einstein|This article does not exist, please"
    }
  }
}
